%YAML 1.1
%TAG !u! tag:unity3d.com,2011:
--- !u!221 &22100000
AnimatorOverrideController:
  m_ObjectHideFlags: 0
  m_CorrespondingSourceObject: {fileID: 0}
  m_PrefabInstance: {fileID: 0}
  m_PrefabAsset: {fileID: 0}
  m_Name: AttackTH 1
  m_Controller: {fileID: 9100000, guid: 80bbb5bcfdc213c4a8671b0042acf30e, type: 2}
  m_Clips:
  - m_OriginalClip: {fileID: -203655887218126122, guid: af1e05686a0b6b746a369dfd6338c8b3,
      type: 3}
    m_OverrideClip: {fileID: -203655887218126122, guid: 66fedea2a78890f4d84e16d81e86fc64,
      type: 3}
