%YAML 1.1
%TAG !u! tag:unity3d.com,2011:
--- !u!114 &11400000
MonoBehaviour:
  m_ObjectHideFlags: 0
  m_CorrespondingSourceObject: {fileID: 0}
  m_PrefabInstance: {fileID: 0}
  m_PrefabAsset: {fileID: 0}
  m_GameObject: {fileID: 0}
  m_Enabled: 1
  m_EditorHideFlags: 0
  m_Script: {fileID: 11500000, guid: 10830e0bc8a1c0c4f8ac9ea0865c04b9, type: 3}
  m_Name: AttackTH 6
  m_EditorClassIdentifier: 
  animatorOV: {fileID: 22100000, guid: d833b0e8402631a47b780f07a660a7ef, type: 2}
  damageAdd: 0
  staminaCost: 15
