%YAML 1.1
%TAG !u! tag:unity3d.com,2011:
--- !u!114 &11400000
MonoBehaviour:
  m_ObjectHideFlags: 0
  m_CorrespondingSourceObject: {fileID: 0}
  m_PrefabInstance: {fileID: 0}
  m_PrefabAsset: {fileID: 0}
  m_GameObject: {fileID: 0}
  m_Enabled: 1
  m_EditorHideFlags: 0
  m_Script: {fileID: 11500000, guid: 9eaaa7224d3f24e41930fcf7ec683a7c, type: 3}
  m_Name: PotionHearts
  m_EditorClassIdentifier: 
  tile: {fileID: 0}
  Model: {fileID: 8210669320987940231, guid: 395334e583569ef4594a35089c059ee8, type: 3}
  type: 1
  actionType: 0
  range: {x: 7, y: 3}
  stackable: 1
  maxCount: 3
  image: {fileID: 0}
  damage: 0
  efforts: 0
  weaponType: 0
  combo: []
  comboMove: []
