%YAML 1.1
%TAG !u! tag:unity3d.com,2011:
--- !u!29 &1
OcclusionCullingSettings:
  m_ObjectHideFlags: 0
  serializedVersion: 2
  m_OcclusionBakeSettings:
    smallestOccluder: 5
    smallestHole: 0.25
    backfaceThreshold: 100
  m_SceneGUID: 00000000000000000000000000000000
  m_OcclusionCullingData: {fileID: 0}
--- !u!104 &2
RenderSettings:
  m_ObjectHideFlags: 0
  serializedVersion: 9
  m_Fog: 0
  m_FogColor: {r: 0.5, g: 0.5, b: 0.5, a: 1}
  m_FogMode: 3
  m_FogDensity: 0.01
  m_LinearFogStart: 0
  m_LinearFogEnd: 300
  m_AmbientSkyColor: {r: 0.212, g: 0.227, b: 0.259, a: 1}
  m_AmbientEquatorColor: {r: 0.114, g: 0.125, b: 0.133, a: 1}
  m_AmbientGroundColor: {r: 0.047, g: 0.043, b: 0.035, a: 1}
  m_AmbientIntensity: 1
  m_AmbientMode: 0
  m_SubtractiveShadowColor: {r: 0.42, g: 0.478, b: 0.627, a: 1}
  m_SkyboxMaterial: {fileID: 10304, guid: 0000000000000000f000000000000000, type: 0}
  m_HaloStrength: 0.5
  m_FlareStrength: 1
  m_FlareFadeSpeed: 3
  m_HaloTexture: {fileID: 0}
  m_SpotCookie: {fileID: 10001, guid: 0000000000000000e000000000000000, type: 0}
  m_DefaultReflectionMode: 0
  m_DefaultReflectionResolution: 128
  m_ReflectionBounces: 1
  m_ReflectionIntensity: 1
  m_CustomReflection: {fileID: 0}
  m_Sun: {fileID: 0}
  m_IndirectSpecularColor: {r: 0.12731749, g: 0.13414757, b: 0.1210787, a: 1}
  m_UseRadianceAmbientProbe: 0
--- !u!157 &3
LightmapSettings:
  m_ObjectHideFlags: 0
  serializedVersion: 12
  m_GIWorkflowMode: 1
  m_GISettings:
    serializedVersion: 2
    m_BounceScale: 1
    m_IndirectOutputScale: 1
    m_AlbedoBoost: 1
    m_EnvironmentLightingMode: 0
    m_EnableBakedLightmaps: 1
    m_EnableRealtimeLightmaps: 0
  m_LightmapEditorSettings:
    serializedVersion: 12
    m_Resolution: 2
    m_BakeResolution: 40
    m_AtlasSize: 1024
    m_AO: 0
    m_AOMaxDistance: 1
    m_CompAOExponent: 1
    m_CompAOExponentDirect: 0
    m_ExtractAmbientOcclusion: 0
    m_Padding: 2
    m_LightmapParameters: {fileID: 0}
    m_LightmapsBakeMode: 1
    m_TextureCompression: 1
    m_FinalGather: 0
    m_FinalGatherFiltering: 1
    m_FinalGatherRayCount: 256
    m_ReflectionCompression: 2
    m_MixedBakeMode: 2
    m_BakeBackend: 1
    m_PVRSampling: 1
    m_PVRDirectSampleCount: 32
    m_PVRSampleCount: 512
    m_PVRBounces: 2
    m_PVREnvironmentSampleCount: 256
    m_PVREnvironmentReferencePointCount: 2048
    m_PVRFilteringMode: 1
    m_PVRDenoiserTypeDirect: 1
    m_PVRDenoiserTypeIndirect: 1
    m_PVRDenoiserTypeAO: 1
    m_PVRFilterTypeDirect: 0
    m_PVRFilterTypeIndirect: 0
    m_PVRFilterTypeAO: 0
    m_PVREnvironmentMIS: 1
    m_PVRCulling: 1
    m_PVRFilteringGaussRadiusDirect: 1
    m_PVRFilteringGaussRadiusIndirect: 5
    m_PVRFilteringGaussRadiusAO: 2
    m_PVRFilteringAtrousPositionSigmaDirect: 0.5
    m_PVRFilteringAtrousPositionSigmaIndirect: 2
    m_PVRFilteringAtrousPositionSigmaAO: 1
    m_ExportTrainingData: 0
    m_TrainingDataDestination: TrainingData
    m_LightProbeSampleCountMultiplier: 4
  m_LightingDataAsset: {fileID: 0}
  m_LightingSettings: {fileID: 0}
--- !u!196 &4
NavMeshSettings:
  serializedVersion: 2
  m_ObjectHideFlags: 0
  m_BuildSettings:
    serializedVersion: 2
    agentTypeID: 0
    agentRadius: 0.5
    agentHeight: 2
    agentSlope: 45
    agentClimb: 0.4
    ledgeDropHeight: 0
    maxJumpAcrossDistance: 0
    minRegionArea: 2
    manualCellSize: 0
    cellSize: 0.16666667
    manualTileSize: 0
    tileSize: 256
    accuratePlacement: 0
    maxJobWorkers: 0
    preserveTilesOutsideBounds: 0
    debug:
      m_Flags: 0
  m_NavMeshData: {fileID: 0}
--- !u!4 &278110812 stripped
Transform:
  m_CorrespondingSourceObject: {fileID: 3761651206206565614, guid: ffa8d7b02fdeb8640814181636f303f5,
    type: 3}
  m_PrefabInstance: {fileID: 280056842}
  m_PrefabAsset: {fileID: 0}
--- !u!1001 &280056842
PrefabInstance:
  m_ObjectHideFlags: 0
  serializedVersion: 2
  m_Modification:
    m_TransformParent: {fileID: 0}
    m_Modifications:
    - target: {fileID: 861195014681012522, guid: ffa8d7b02fdeb8640814181636f303f5,
        type: 3}
      propertyPath: m_ExposedReferences.m_References.Array.size
      value: 2
      objectReference: {fileID: 0}
    - target: {fileID: 861195014681012522, guid: ffa8d7b02fdeb8640814181636f303f5,
        type: 3}
      propertyPath: m_ExposedReferences.m_References.Array.data[1].first
      value: 977c5845ba27d644dbcc98635b329531
      objectReference: {fileID: 0}
    - target: {fileID: 861195014681012522, guid: ffa8d7b02fdeb8640814181636f303f5,
        type: 3}
      propertyPath: m_ExposedReferences.m_References.Array.data[1].second
      value: 
      objectReference: {fileID: 1558636730}
    - target: {fileID: 861195016111662755, guid: ffa8d7b02fdeb8640814181636f303f5,
        type: 3}
      propertyPath: m_LocalPosition.x
      value: 45.248962
      objectReference: {fileID: 0}
    - target: {fileID: 861195016111662755, guid: ffa8d7b02fdeb8640814181636f303f5,
        type: 3}
      propertyPath: m_LocalPosition.y
      value: 40.985504
      objectReference: {fileID: 0}
    - target: {fileID: 861195016111662755, guid: ffa8d7b02fdeb8640814181636f303f5,
        type: 3}
      propertyPath: m_LocalPosition.z
      value: 67.86438
      objectReference: {fileID: 0}
    - target: {fileID: 861195016111662755, guid: ffa8d7b02fdeb8640814181636f303f5,
        type: 3}
      propertyPath: m_LocalRotation.w
      value: -0.27219224
      objectReference: {fileID: 0}
    - target: {fileID: 861195016111662755, guid: ffa8d7b02fdeb8640814181636f303f5,
        type: 3}
      propertyPath: m_LocalRotation.x
      value: -0.028023794
      objectReference: {fileID: 0}
    - target: {fileID: 861195016111662755, guid: ffa8d7b02fdeb8640814181636f303f5,
        type: 3}
      propertyPath: m_LocalRotation.y
      value: 0.9567772
      objectReference: {fileID: 0}
    - target: {fileID: 861195016111662755, guid: ffa8d7b02fdeb8640814181636f303f5,
        type: 3}
      propertyPath: m_LocalRotation.z
      value: -0.098505855
      objectReference: {fileID: 0}
    - target: {fileID: 2777047785001148209, guid: ffa8d7b02fdeb8640814181636f303f5,
        type: 3}
      propertyPath: m_Name
      value: death_cutscene
      objectReference: {fileID: 0}
    - target: {fileID: 3761651206206565614, guid: ffa8d7b02fdeb8640814181636f303f5,
        type: 3}
      propertyPath: m_RootOrder
      value: 0
      objectReference: {fileID: 0}
    - target: {fileID: 3761651206206565614, guid: ffa8d7b02fdeb8640814181636f303f5,
        type: 3}
      propertyPath: m_LocalPosition.x
      value: 985.3631
      objectReference: {fileID: 0}
    - target: {fileID: 3761651206206565614, guid: ffa8d7b02fdeb8640814181636f303f5,
        type: 3}
      propertyPath: m_LocalPosition.y
      value: 1.9984016
      objectReference: {fileID: 0}
    - target: {fileID: 3761651206206565614, guid: ffa8d7b02fdeb8640814181636f303f5,
        type: 3}
      propertyPath: m_LocalPosition.z
      value: 1204.625
      objectReference: {fileID: 0}
    - target: {fileID: 3761651206206565614, guid: ffa8d7b02fdeb8640814181636f303f5,
        type: 3}
      propertyPath: m_LocalRotation.w
      value: 1
      objectReference: {fileID: 0}
    - target: {fileID: 3761651206206565614, guid: ffa8d7b02fdeb8640814181636f303f5,
        type: 3}
      propertyPath: m_LocalRotation.x
      value: 0
      objectReference: {fileID: 0}
    - target: {fileID: 3761651206206565614, guid: ffa8d7b02fdeb8640814181636f303f5,
        type: 3}
      propertyPath: m_LocalRotation.y
      value: 0
      objectReference: {fileID: 0}
    - target: {fileID: 3761651206206565614, guid: ffa8d7b02fdeb8640814181636f303f5,
        type: 3}
      propertyPath: m_LocalRotation.z
      value: 0
      objectReference: {fileID: 0}
    - target: {fileID: 3761651206206565614, guid: ffa8d7b02fdeb8640814181636f303f5,
        type: 3}
      propertyPath: m_LocalEulerAnglesHint.x
      value: 0
      objectReference: {fileID: 0}
    - target: {fileID: 3761651206206565614, guid: ffa8d7b02fdeb8640814181636f303f5,
        type: 3}
      propertyPath: m_LocalEulerAnglesHint.y
      value: 0
      objectReference: {fileID: 0}
    - target: {fileID: 3761651206206565614, guid: ffa8d7b02fdeb8640814181636f303f5,
        type: 3}
      propertyPath: m_LocalEulerAnglesHint.z
      value: 0
      objectReference: {fileID: 0}
    - target: {fileID: 4899610740287306623, guid: ffa8d7b02fdeb8640814181636f303f5,
        type: 3}
      propertyPath: m_LocalRotation.w
      value: -0.27219224
      objectReference: {fileID: 0}
    - target: {fileID: 4899610740287306623, guid: ffa8d7b02fdeb8640814181636f303f5,
        type: 3}
      propertyPath: m_LocalRotation.x
      value: -0.028023794
      objectReference: {fileID: 0}
    - target: {fileID: 4899610740287306623, guid: ffa8d7b02fdeb8640814181636f303f5,
        type: 3}
      propertyPath: m_LocalRotation.y
      value: 0.9567772
      objectReference: {fileID: 0}
    - target: {fileID: 4899610740287306623, guid: ffa8d7b02fdeb8640814181636f303f5,
        type: 3}
      propertyPath: m_LocalRotation.z
      value: -0.098505855
      objectReference: {fileID: 0}
    - target: {fileID: 6532860064828285048, guid: ffa8d7b02fdeb8640814181636f303f5,
        type: 3}
      propertyPath: m_Speed
      value: 20
      objectReference: {fileID: 0}
    m_RemovedComponents: []
  m_SourcePrefab: {fileID: 100100000, guid: ffa8d7b02fdeb8640814181636f303f5, type: 3}
--- !u!1 &621398695
GameObject:
  m_ObjectHideFlags: 3
  m_CorrespondingSourceObject: {fileID: 0}
  m_PrefabInstance: {fileID: 0}
  m_PrefabAsset: {fileID: 0}
  serializedVersion: 6
  m_Component:
  - component: {fileID: 621398696}
  - component: {fileID: 621398699}
  - component: {fileID: 621398698}
  - component: {fileID: 621398697}
  m_Layer: 0
  m_Name: cm
  m_TagString: Untagged
  m_Icon: {fileID: 0}
  m_NavMeshLayer: 0
  m_StaticEditorFlags: 0
  m_IsActive: 1
--- !u!4 &621398696
Transform:
  m_ObjectHideFlags: 3
  m_CorrespondingSourceObject: {fileID: 0}
  m_PrefabInstance: {fileID: 0}
  m_PrefabAsset: {fileID: 0}
  m_GameObject: {fileID: 621398695}
  m_LocalRotation: {x: 0.10467624, y: 0.8847205, z: -0.24093646, w: -0.3850482}
  m_LocalPosition: {x: 1544.7405, y: 0.695282, z: 83.833374}
  m_LocalScale: {x: 1, y: 1, z: 1}
  m_ConstrainProportionsScale: 0
  m_Children: []
  m_Father: {fileID: 1558636729}
  m_RootOrder: 0
  m_LocalEulerAnglesHint: {x: 0, y: 0, z: 0}
--- !u!114 &621398697
MonoBehaviour:
  m_ObjectHideFlags: 3
  m_CorrespondingSourceObject: {fileID: 0}
  m_PrefabInstance: {fileID: 0}
  m_PrefabAsset: {fileID: 0}
  m_GameObject: {fileID: 621398695}
  m_Enabled: 1
  m_EditorHideFlags: 0
  m_Script: {fileID: 11500000, guid: fa7155796051b734daa718462081dc5f, type: 3}
  m_Name: 
  m_EditorClassIdentifier: 
  m_BindingMode: 1
  m_FollowOffset: {x: 0, y: 0, z: -10}
  m_XDamping: 1
  m_YDamping: 1
  m_ZDamping: 1
  m_AngularDampingMode: 0
  m_PitchDamping: 0
  m_YawDamping: 0
  m_RollDamping: 0
  m_AngularDamping: 0
--- !u!114 &621398698
MonoBehaviour:
  m_ObjectHideFlags: 3
  m_CorrespondingSourceObject: {fileID: 0}
  m_PrefabInstance: {fileID: 0}
  m_PrefabAsset: {fileID: 0}
  m_GameObject: {fileID: 621398695}
  m_Enabled: 1
  m_EditorHideFlags: 0
  m_Script: {fileID: 11500000, guid: f4044717213e31446939f7bd49c896ea, type: 3}
  m_Name: 
  m_EditorClassIdentifier: 
  m_TrackedObjectOffset: {x: 0, y: 0, z: 0}
  m_LookaheadTime: 0
  m_LookaheadSmoothing: 0
  m_LookaheadIgnoreY: 0
  m_HorizontalDamping: 0.5
  m_VerticalDamping: 0.5
  m_ScreenX: 0.5
  m_ScreenY: 0.5
  m_DeadZoneWidth: 0
  m_DeadZoneHeight: 0
  m_SoftZoneWidth: 0.8
  m_SoftZoneHeight: 0.8
  m_BiasX: 0
  m_BiasY: 0
  m_CenterOnActivate: 1
--- !u!114 &621398699
MonoBehaviour:
  m_ObjectHideFlags: 3
  m_CorrespondingSourceObject: {fileID: 0}
  m_PrefabInstance: {fileID: 0}
  m_PrefabAsset: {fileID: 0}
  m_GameObject: {fileID: 621398695}
  m_Enabled: 1
  m_EditorHideFlags: 0
  m_Script: {fileID: 11500000, guid: ac0b09e7857660247b1477e93731de29, type: 3}
  m_Name: 
  m_EditorClassIdentifier: 
--- !u!1 &1558636728
GameObject:
  m_ObjectHideFlags: 0
  m_CorrespondingSourceObject: {fileID: 0}
  m_PrefabInstance: {fileID: 0}
  m_PrefabAsset: {fileID: 0}
  serializedVersion: 6
  m_Component:
  - component: {fileID: 1558636729}
  - component: {fileID: 1558636730}
  - component: {fileID: 1558636731}
  m_Layer: 0
  m_Name: CM2
  m_TagString: Untagged
  m_Icon: {fileID: 0}
  m_NavMeshLayer: 0
  m_StaticEditorFlags: 0
  m_IsActive: 1
--- !u!4 &1558636729
Transform:
  m_ObjectHideFlags: 0
  m_CorrespondingSourceObject: {fileID: 0}
  m_PrefabInstance: {fileID: 0}
  m_PrefabAsset: {fileID: 0}
  m_GameObject: {fileID: 1558636728}
  m_LocalRotation: {x: 0.0345847, y: 0.9520252, z: -0.11738746, w: 0.2804857}
  m_LocalPosition: {x: -61.8631, y: 51.6, z: 90.400024}
  m_LocalScale: {x: 1, y: 1, z: 1}
  m_ConstrainProportionsScale: 0
  m_Children:
  - {fileID: 621398696}
  m_Father: {fileID: 278110812}
  m_RootOrder: 7
  m_LocalEulerAnglesHint: {x: 0, y: 0, z: 0}
--- !u!114 &1558636730
MonoBehaviour:
  m_ObjectHideFlags: 0
  m_CorrespondingSourceObject: {fileID: 0}
  m_PrefabInstance: {fileID: 0}
  m_PrefabAsset: {fileID: 0}
  m_GameObject: {fileID: 1558636728}
  m_Enabled: 1
  m_EditorHideFlags: 0
  m_Script: {fileID: 11500000, guid: 45e653bab7fb20e499bda25e1b646fea, type: 3}
  m_Name: 
  m_EditorClassIdentifier: 
  m_ExcludedPropertiesInInspector:
  - m_Script
  m_LockStageInInspector: 
  m_StreamingVersion: 20170927
  m_Priority: 10
  m_StandbyUpdate: 2
  m_LookAt: {fileID: 1937953500}
  m_Follow: {fileID: 0}
  m_Lens:
    FieldOfView: 60
    OrthographicSize: 5
    NearClipPlane: 0.3
    FarClipPlane: 1000
    Dutch: 0
    ModeOverride: 0
    LensShift: {x: 0, y: 0}
    GateFit: 2
    m_SensorSize: {x: 1, y: 1}
    Iso: 200
    ShutterSpeed: 0.005
    Aperture: 16
    BladeCount: 5
    Curvature: {x: 2, y: 11}
    BarrelClipping: 0.25
    Anamorphism: 0
  m_Transitions:
    m_BlendHint: 0
    m_InheritPosition: 0
    m_OnCameraLive:
      m_PersistentCalls:
        m_Calls: []
  m_LegacyBlendHint: 0
  m_ComponentOwner: {fileID: 621398696}
--- !u!114 &1558636731
MonoBehaviour:
  m_ObjectHideFlags: 0
  m_CorrespondingSourceObject: {fileID: 0}
  m_PrefabInstance: {fileID: 0}
  m_PrefabAsset: {fileID: 0}
  m_GameObject: {fileID: 1558636728}
  m_Enabled: 1
  m_EditorHideFlags: 0
  m_Script: {fileID: 11500000, guid: 99a9c787e5d1bbf48a389834c4a9641c, type: 3}
  m_Name: 
  m_EditorClassIdentifier: 
  m_Path: {fileID: 2113415130}
  m_UpdateMethod: 0
  m_PositionUnits: 1
  m_Speed: 30
  m_Position: 0
--- !u!4 &1937953500 stripped
Transform:
  m_CorrespondingSourceObject: {fileID: 5881668102733088045, guid: ffa8d7b02fdeb8640814181636f303f5,
    type: 3}
  m_PrefabInstance: {fileID: 280056842}
  m_PrefabAsset: {fileID: 0}
--- !u!1 &2113415128
GameObject:
  m_ObjectHideFlags: 0
  m_CorrespondingSourceObject: {fileID: 0}
  m_PrefabInstance: {fileID: 0}
  m_PrefabAsset: {fileID: 0}
  serializedVersion: 6
  m_Component:
  - component: {fileID: 2113415129}
  - component: {fileID: 2113415130}
  m_Layer: 0
  m_Name: DollyTrack3
  m_TagString: Untagged
  m_Icon: {fileID: 0}
  m_NavMeshLayer: 0
  m_StaticEditorFlags: 0
  m_IsActive: 1
--- !u!4 &2113415129
Transform:
  m_ObjectHideFlags: 0
  m_CorrespondingSourceObject: {fileID: 0}
  m_PrefabInstance: {fileID: 0}
  m_PrefabAsset: {fileID: 0}
  m_GameObject: {fileID: 2113415128}
  m_LocalRotation: {x: -0, y: -0, z: -0, w: 1}
  m_LocalPosition: {x: 58.1369, y: 51.6, z: 85.4}
  m_LocalScale: {x: 1, y: 1, z: 1}
  m_ConstrainProportionsScale: 0
  m_Children: []
  m_Father: {fileID: 278110812}
  m_RootOrder: 6
  m_LocalEulerAnglesHint: {x: 0, y: 0, z: 0}
--- !u!114 &2113415130
MonoBehaviour:
  m_ObjectHideFlags: 0
  m_CorrespondingSourceObject: {fileID: 0}
  m_PrefabInstance: {fileID: 0}
  m_PrefabAsset: {fileID: 0}
  m_GameObject: {fileID: 2113415128}
  m_Enabled: 1
  m_EditorHideFlags: 0
  m_Script: {fileID: 11500000, guid: a200b19ca1a9685429ed7e043c28e904, type: 3}
  m_Name: 
  m_EditorClassIdentifier: 
  m_Resolution: 20
  m_Appearance:
    pathColor: {r: 0, g: 1, b: 0, a: 1}
    inactivePathColor: {r: 0.5, g: 0.5, b: 0.5, a: 1}
    width: 0.2
  m_Looped: 0
  m_Waypoints:
  - position: {x: -120, y: 0, z: 5}
    roll: 0
  - position: {x: -25.872559, y: -16.417873, z: -132.25171}
    roll: 0
