%YAML 1.1
%TAG !u! tag:unity3d.com,2011:
--- !u!1 &8102679510297551879
GameObject:
  m_ObjectHideFlags: 0
  m_CorrespondingSourceObject: {fileID: 0}
  m_PrefabInstance: {fileID: 0}
  m_PrefabAsset: {fileID: 0}
  serializedVersion: 6
  m_Component:
  - component: {fileID: 1060597358356051668}
  - component: {fileID: 950384198617178101}
  - component: {fileID: 1390207089518624858}
  m_Layer: 0
  m_Name: UIStatsManager
  m_TagString: Untagged
  m_Icon: {fileID: 0}
  m_NavMeshLayer: 0
  m_StaticEditorFlags: 0
  m_IsActive: 1
--- !u!4 &1060597358356051668
Transform:
  m_ObjectHideFlags: 0
  m_CorrespondingSourceObject: {fileID: 0}
  m_PrefabInstance: {fileID: 0}
  m_PrefabAsset: {fileID: 0}
  m_GameObject: {fileID: 8102679510297551879}
  m_LocalRotation: {x: 0, y: 0, z: 0, w: 1}
  m_LocalPosition: {x: 0, y: 0, z: 0}
  m_LocalScale: {x: 1, y: 1, z: 1}
  m_ConstrainProportionsScale: 0
  m_Children: []
  m_Father: {fileID: 0}
  m_RootOrder: 0
  m_LocalEulerAnglesHint: {x: 0, y: 0, z: 0}
--- !u!114 &950384198617178101
MonoBehaviour:
  m_ObjectHideFlags: 0
  m_CorrespondingSourceObject: {fileID: 0}
  m_PrefabInstance: {fileID: 0}
  m_PrefabAsset: {fileID: 0}
  m_GameObject: {fileID: 8102679510297551879}
  m_Enabled: 1
  m_EditorHideFlags: 0
  m_Script: {fileID: 11500000, guid: f5aed036108886b45a0257af4a05d3f2, type: 3}
  m_Name: 
  m_EditorClassIdentifier: 
  hp_bar: {fileID: 0}
  stamina_bar: {fileID: 0}
  hearts_counter: {fileID: 0}
  stats: {fileID: 11400000, guid: 46839627159cd834695b2bfdada982aa, type: 2}
--- !u!114 &1390207089518624858
MonoBehaviour:
  m_ObjectHideFlags: 0
  m_CorrespondingSourceObject: {fileID: 0}
  m_PrefabInstance: {fileID: 0}
  m_PrefabAsset: {fileID: 0}
  m_GameObject: {fileID: 8102679510297551879}
  m_Enabled: 1
  m_EditorHideFlags: 0
  m_Script: {fileID: 11500000, guid: 077828eb6b5e18644a826824ee5d27a5, type: 3}
  m_Name: 
  m_EditorClassIdentifier: 
  ui_stats: {fileID: 950384198617178101}
  playerStats: {fileID: 11400000, guid: 46839627159cd834695b2bfdada982aa, type: 2}
  hp_bar: {fileID: 0}
  stamina_bar: {fileID: 0}
  hearts_counter: {fileID: 0}
  animationCurve:
    serializedVersion: 2
    m_Curve:
    - serializedVersion: 3
      time: 0
      value: 0
      inSlope: 2
      outSlope: 2
      tangentMode: 0
      weightedMode: 0
      inWeight: 0
      outWeight: 0
    - serializedVersion: 3
      time: 0.6958313
      value: 1.0023575
      inSlope: -0.0000019418708
      outSlope: -0.0000019418708
      tangentMode: 0
      weightedMode: 0
      inWeight: 1
      outWeight: 0
    m_PreInfinity: 2
    m_PostInfinity: 2
    m_RotationOrder: 4
